…
homicides_summary
```

    ## # A tibble: 50 × 3
    ##    city_state      total_homicides total_unsolved_homicides
    ##    <chr>                     <int>                    <int>
    ##  1 Albuquerque, NM             378                      146
    ##  2 Atlanta, GA                 973                      373
    ##  3 Baltimore, MD              2827                     1825
    ##  4 Baton Rouge, LA             424                      196
    ##  5 Birmingham, AL              800                      347
    ##  6 Boston, MA                  614                      310
    ##  7 Buffalo, NY                 521                      319
    ##  8 Charlotte, NC               687                      206
    ##  9 Chicago, IL                5535                     4073
    ## 10 Cincinnati, OH              694                      309
    ## # ℹ 40 more rows
…
# run the simulation for each value of mu
results <- map_df(mu_list, function(mu) {
  map_dfr(1:n_simulations, ~simulate_t_test(mu, n, sigma))
}, .id = "mu")

# convert the mu to a numeric value for plotting
results %>%
  mutate(mu = as.numeric(str_extract(results$mu, "\\d+")))
```

    ## # A tibble: 30,000 × 3
    ##       mu estimate p.value
    ##    <dbl>    <dbl>   <dbl>
    ##  1     1   1.66     0.404
    ##  2     1  -0.0640   0.186
    ##  3     1   0.678    0.733
    ##  4     1   0.938    0.934
    ##  5     1   1.50     0.503
    ##  6     1   1.48     0.632
    ##  7     1   1.96     0.280
    ##  8     1   0.659    0.618
    ##  9     1   0.155    0.295
    ## 10     1   1.42     0.694
    ## # ℹ 29,990 more rows
…
